<svg width="32" height="32" viewBox="0 0 32 32"  xmlns="http://www.w3.org/2000/svg">
<path d="M30.001 7.501C29.044 7.926 28.016 8.212 26.937 8.341C28.039 7.681 28.884 6.636 29.282 5.39C28.252 6.001 27.11 6.445 25.894 6.685C24.921 5.648 23.535 5 22.001 5C19.055 5 16.667 7.389 16.667 10.334C16.667 10.752 16.715 11.16 16.805 11.549C12.372 11.327 8.442 9.203 5.81 5.975C5.352 6.763 5.089 7.679 5.089 8.658C5.089 10.508 6.03 12.141 7.461 13.097C6.587 13.069 5.764 12.829 5.045 12.43C5.045 12.453 5.045 12.474 5.045 12.497C5.045 15.082 6.883 17.238 9.324 17.727C8.877 17.849 8.405 17.914 7.918 17.914C7.575 17.914 7.24 17.88 6.915 17.819C7.594 19.938 9.564 21.481 11.898 21.524C10.073 22.955 7.773 23.808 5.273 23.808C4.843 23.808 4.418 23.783 4 23.733C6.361 25.246 9.164 26.129 12.177 26.129C21.989 26.129 27.353 18.001 27.353 10.952C27.353 10.721 27.348 10.491 27.338 10.262C28.381 9.509 29.286 8.57 30.001 7.501Z" />
</svg>
