<svg width="32" height="32" viewBox="0 0 32 32" xmlns="http://www.w3.org/2000/svg">
    <mask id="mask0_120_137" style="mask-type:alpha" maskUnits="userSpaceOnUse" x="0" y="0" width="32" height="32">
        <rect width="32" height="32" fill="white"/>
    </mask>
    <g mask="url(#mask0_120_137)">
        <path fill-rule="evenodd" clip-rule="evenodd" d="M24.8244 7.67456C26.0511 7.95581 27.1082 8.85669 27.3301 10.0938C27.6085 11.5 27.8869 13.4688 28 16C27.9434 18.4741 27.665 20.5 27.4432 21.9062C27.2191 23.2004 26.162 24.0442 24.9375 24.3254C22.9886 24.7188 19.6476 25 15.9717 25C12.2958 25 8.95487 24.7188 7.00598 24.3254C5.7814 24.0442 4.72431 23.1433 4.50027 21.9062C4.22186 20.5 4 18.5312 4 16C4 13.4688 4.22186 11.5 4.44589 10.0938C4.66775 8.79956 5.72703 7.95581 6.9516 7.67456C8.78956 7.28125 12.2414 7 15.9152 7C19.5911 7 22.9886 7.28125 24.8244 7.67456ZM19.703 16L12.9102 12.0625V19.9375L19.703 16Z"  />
    </g>
</svg>
